[gd_scene load_steps=2 format=3 uid="uid://36s8v8x4wyuq"]

[ext_resource type="Script" path="res://scene/gate/Gate.gd" id="1_jaocm"]

[node name="Gate" type="Control"]
custom_minimum_size = Vector2(72, 40)
layout_mode = 3
anchors_preset = 0
offset_right = 72.0
offset_bottom = 40.0
script = ExtResource("1_jaocm")
inputCount = 2
outputCount = 1
text = "Name"

[node name="Border" type="ColorRect" parent="."]
layout_mode = 1
anchors_preset = 15
anchor_right = 1.0
anchor_bottom = 1.0
grow_horizontal = 2
grow_vertical = 2
color = Color(0, 0, 0, 1)

[node name="BGContainer" type="MarginContainer" parent="."]
layout_mode = 1
anchors_preset = 15
anchor_right = 1.0
anchor_bottom = 1.0
grow_horizontal = 2
grow_vertical = 2
theme_override_constants/margin_left = 2
theme_override_constants/margin_top = 2
theme_override_constants/margin_right = 2
theme_override_constants/margin_bottom = 2

[node name="BG" type="ColorRect" parent="BGContainer"]
layout_mode = 2
color = Color(0.8, 0.8, 0.8, 1)

[node name="BodyMargin" type="MarginContainer" parent="."]
layout_mode = 0
offset_right = 40.0
offset_bottom = 40.0
theme_override_constants/margin_left = 1
theme_override_constants/margin_top = 2
theme_override_constants/margin_right = 1
theme_override_constants/margin_bottom = 2

[node name="BodyBox" type="HBoxContainer" parent="BodyMargin"]
custom_minimum_size = Vector2(40, 25)
layout_mode = 2

[node name="InputContainer" type="VBoxContainer" parent="BodyMargin/BodyBox"]
layout_mode = 2
theme_override_constants/separation = 1
alignment = 1

[node name="AdditionalContainer" type="CenterContainer" parent="BodyMargin/BodyBox"]
layout_mode = 2

[node name="Label" type="Label" parent="BodyMargin/BodyBox"]
layout_mode = 2
size_flags_horizontal = 3
size_flags_vertical = 1
theme_override_colors/font_color = Color(0, 0, 0, 1)
theme_override_font_sizes/font_size = 20
text = "Name"
vertical_alignment = 1

[node name="OutputContainer" type="VBoxContainer" parent="BodyMargin/BodyBox"]
layout_mode = 2
theme_override_constants/separation = 1
alignment = 1

[node name="RightClickMenu" type="PopupMenu" parent="."]
item_count = 1
item_0/text = "Delete"
item_0/id = 0

[connection signal="resized" from="BodyMargin" to="." method="_on_margin_container_resized"]
[connection signal="id_pressed" from="RightClickMenu" to="." method="_on_right_click_menu_id_pressed"]
